<svg width="68" height="68" viewBox="0 0 68 68" xmlns="http://www.w3.org/2000/svg">
<g id="icons8_reception 1">
<path id="Vector" d="M18.0946 3.50208C14.4198 3.50208 11.4415 6.48038 11.4415 10.1552C11.4415 13.83 14.4198 16.8083 18.0946 16.8083C21.7694 16.8083 24.7477 13.83 24.7477 10.1552C24.7477 6.48038 21.7694 3.50208 18.0946 3.50208ZM55.3519 3.50208C51.6771 3.50208 48.6988 6.48038 48.6988 10.1552C48.6988 13.83 51.6771 16.8083 55.3519 16.8083C59.0267 16.8083 62.005 13.83 62.005 10.1552C62.005 6.48038 59.0267 3.50208 55.3519 3.50208ZM14.768 19.4695C10.7762 19.4695 7.44962 22.6713 7.44962 26.6632V39.4288H3.45776V42.09H46.0376V39.4288H28.7395V26.6632C28.7395 22.6713 25.413 19.4695 21.4211 19.4695H14.768ZM33.6462 39.4288C34.3115 39.4288 34.9924 39.1637 35.3926 38.7635L48.6988 27.578V62.0493C48.6988 63.5151 49.8943 64.7106 51.3601 64.7106H58.0132C59.4789 64.7106 60.6744 63.5151 60.6744 62.0493V44.7513H62.005C63.4708 44.7513 64.6663 43.5558 64.6663 42.09V26.6632C64.6663 22.6713 61.3397 19.4695 57.3479 19.4695H52.6907C50.5596 19.4695 48.5845 20.2856 47.1187 21.8813L32.0661 35.3122C31.0005 36.2426 31.0109 37.8331 31.9413 38.7635C32.4715 39.1637 32.9809 39.4288 33.6462 39.4288ZM27.4089 43.4207C25.8132 43.4207 24.7477 44.4862 24.7477 46.0819V64.7106H35.3926V46.0819C35.3926 44.4862 34.3271 43.4207 32.7314 43.4207H27.4089ZM27.4089 46.0819H32.7314V47.4125H27.4089V46.0819ZM19.4252 47.4125C17.9594 47.4125 16.764 48.608 16.764 50.0738V62.0493C16.764 63.5151 17.9594 64.7106 19.4252 64.7106H22.0864V47.4125H19.4252ZM38.0539 47.4125V64.7106H40.7151C42.1809 64.7106 43.3763 63.5151 43.3763 62.0493V50.0738C43.3763 48.608 42.1809 47.4125 40.7151 47.4125H38.0539Z"/>
</g>
</svg>
