<svg width="49" height="48" viewBox="0 0 49 48" fill="none" xmlns="http://www.w3.org/2000/svg">
<g id="icons8_ok 1">
<path id="Vector" d="M44.9168 24C44.9168 35.045 35.7753 44 24.5002 44C13.2251 44 4.0835 35.045 4.0835 24C4.0835 12.955 13.2251 4 24.5002 4C35.7753 4 44.9168 12.955 44.9168 24Z" fill="#24C12B"/>
<path id="Vector_2" d="M35.3226 14.6021L21.4373 28.199L15.7186 22.6011L12.8633 25.3981L21.4373 33.801L38.1769 17.3991L35.3226 14.6021Z" fill="white"/>
</g>
</svg>
