<svg  width="62" height="62" viewBox="0 0 62 62" fill="none" xmlns="http://www.w3.org/2000/svg">
<path d="M14.6368 0C10.962 0 7.98372 2.9783 7.98372 6.6531C7.98372 10.3279 10.962 13.3062 14.6368 13.3062C18.3116 13.3062 21.2899 10.3279 21.2899 6.6531C21.2899 2.9783 18.3116 0 14.6368 0ZM51.8942 0C48.2194 0 45.2411 2.9783 45.2411 6.6531C45.2411 10.3279 48.2194 13.3062 51.8942 13.3062C55.569 13.3062 58.5473 10.3279 58.5473 6.6531C58.5473 2.9783 55.569 0 51.8942 0ZM11.3103 15.9674C7.31841 15.9674 3.99186 19.1692 3.99186 23.1611V35.9267H0V38.588H42.5798V35.9267H25.2818V23.1611C25.2818 19.1692 21.9552 15.9674 17.9634 15.9674H11.3103ZM30.1884 35.9267C30.8537 35.9267 31.5346 35.6616 31.9349 35.2614L45.2411 24.0759V58.5473C45.2411 60.013 46.4365 61.2085 47.9023 61.2085H54.5554C56.0212 61.2085 57.2166 60.013 57.2166 58.5473V41.2492H58.5473C60.013 41.2492 61.2085 40.0537 61.2085 38.588V23.1611C61.2085 19.1692 57.8819 15.9674 53.8901 15.9674H49.2329C47.1018 15.9674 45.1267 16.7835 43.6609 18.3792L28.6083 31.8101C27.5428 32.7405 27.5532 34.331 28.4836 35.2614C29.0137 35.6616 29.5231 35.9267 30.1884 35.9267ZM23.9512 39.9186C22.3554 39.9186 21.2899 40.9841 21.2899 42.5798V61.2085H31.9349V42.5798C31.9349 40.9841 30.8693 39.9186 29.2736 39.9186H23.9512ZM23.9512 42.5798H29.2736V43.9104H23.9512V42.5798ZM15.9674 43.9104C14.5017 43.9104 13.3062 45.1059 13.3062 46.5717V58.5473C13.3062 60.013 14.5017 61.2085 15.9674 61.2085H18.6287V43.9104H15.9674ZM34.5961 43.9104V61.2085H37.2573C38.7231 61.2085 39.9186 60.013 39.9186 58.5473V46.5717C39.9186 45.1059 38.7231 43.9104 37.2573 43.9104H34.5961Z" fill="var(--ion-icon-color-secondary)"/>
<circle cx="31.3853" cy="31.3853" r="11.8853" fill="white" stroke="white"/>
<path d="M31.3853 20C25.0978 20 20 25.0978 20 31.3853C20 37.6728 25.0978 42.7705 31.3853 42.7705C37.6728 42.7705 42.7705 37.6728 42.7705 31.3853C42.7705 25.0978 37.6728 20 31.3853 20ZM32.7268 31.3853C32.7268 31.3853 35.705 34.3635 35.8511 34.5096C36.2221 34.8805 36.2221 35.4811 35.8511 35.8511C35.4802 36.2221 34.8796 36.2221 34.5096 35.8511C34.3635 35.706 31.3853 32.7268 31.3853 32.7268C31.3853 32.7268 28.4071 35.705 28.261 35.8511C27.89 36.2221 27.2894 36.2221 26.9194 35.8511C26.5484 35.4802 26.5484 34.8796 26.9194 34.5096C27.0646 34.3635 30.0437 31.3853 30.0437 31.3853C30.0437 31.3853 27.0655 28.4071 26.9194 28.261C26.5484 27.89 26.5484 27.2894 26.9194 26.9194C27.2904 26.5484 27.8909 26.5484 28.261 26.9194C28.4071 27.0646 31.3853 30.0437 31.3853 30.0437C31.3853 30.0437 34.3635 27.0655 34.5096 26.9194C34.8805 26.5484 35.4811 26.5484 35.8511 26.9194C36.2221 27.2904 36.2221 27.8909 35.8511 28.261C35.706 28.4071 32.7268 31.3853 32.7268 31.3853Z" fill="#ED4141"/>
</svg>
